Wizualizacja dynamiki
…
porownanie

## # A tibble: 108 × 5
##    edycja  kod_A1_1min        E1.1_4          n           p
##     <chr>       <fctr>        <fctr>      <dbl>       <dbl>
## 1    2011 uniwersytety         niski   91.84516 0.006927913
## 2    2011 uniwersytety    podstawowy  426.65437 0.032182688
## 3    2011 uniwersytety        średni 2337.12728 0.176290327
## 4    2011 uniwersytety        wysoki 5284.18631 0.398588018
## 5    2011 uniwersytety bardzo wysoki 5117.45019 0.386011055
## 6    2011 politechniki         niski   48.62859 0.007007470
## 7    2011 politechniki    podstawowy  127.89984 0.018430602
## 8    2011 politechniki        średni  761.00558 0.109662304
## 9    2011 politechniki        wysoki 2464.28383 0.355107831
## 10   2011 politechniki bardzo wysoki 3537.71885 0.509791793
## # ... with 98 more rows
…
